a3_task3_madeline_mcewen
…
## Warning: 22581 failed to parse.

Summary table

Contains total number of purple urchins observed by site and year

use count()

purple_data<-purple_urchins %>% 
  count(site, year)

purple_data

## # A tibble: 46 x 3
##    site   year     n
##    <chr> <dbl> <int>
##  1 AQUE   2001   102
##  2 AQUE   2002   332
##  3 AQUE   2003   648
##  4 AQUE   2005   267
##  5 AQUE   2006   111
##  6 AQUE   2008   116
##  7 AQUE   2009   217
##  8 AQUE   2010   100
##  9 AQUE   2012   114
## 10 AQUE     NA  4460
## #  with 36 more rows
…
